%YAML 1.1
%TAG !u! tag:unity3d.com,2011:
--- !u!1045 &1
EditorBuildSettings:
  m_ObjectHideFlags: 0
  serializedVersion: 2
  m_Scenes:
  - enabled: 1
    path: Assets/Kai/MainMenu.unity
    guid: 25c182087e90c8b468b233ee95b62a16
  - enabled: 1
    path: Assets/Kai/LevelGenTest.unity
    guid: 1fdd6e90bac495a4e9f8fb4fa5255b0a
  - enabled: 1
    path: Assets/Kai/LevelBuilder.unity
    guid: 43cdac39f37a6e04bac5a1b2e9543aba
  m_configObjects: {}
